io\renren\modules\security\dto\LoginDTO.class
io\renren\modules\sys\controller\SysDeptController.class
io\renren\modules\job\utils\ScheduleJob.class
io\renren\modules\sys\controller\SysUserController.class
io\renren\modules\sys\service\SysRoleUserService.class
io\renren\modules\security\config\ShiroConfig.class
io\renren\modules\log\service\impl\SysLogOperationServiceImpl.class
io\renren\AdminApplication.class
io\renren\modules\sys\controller\SysParamsController.class
io\renren\modules\demo\service\NewsService.class
io\renren\modules\message\entity\SysMailLogEntity.class
io\renren\modules\security\service\SysUserTokenService.class
io\renren\modules\sys\service\SysRoleMenuService.class
io\renren\modules\sys\controller\SysDictController.class
io\renren\modules\message\dao\SysMailTemplateDao.class
io\renren\modules\activiti\service\ActModelService.class
io\renren\modules\sys\dto\SysDictDTO.class
io\renren\modules\sys\service\impl\SysDictServiceImpl.class
io\renren\modules\message\dao\SysMailLogDao.class
io\renren\modules\message\sms\SmsConfig.class
io\renren\modules\sys\excel\SysParamsExcel.class
io\renren\modules\message\entity\SysMailTemplateEntity.class
io\renren\modules\security\entity\SysUserTokenEntity.class
io\renren\modules\sys\dao\SysRoleMenuDao.class
io\renren\modules\sys\entity\SysRoleDataScopeEntity.class
io\renren\modules\activiti\org\activiti\rest\editor\main\StencilsetRestResource.class
io\renren\modules\sys\dao\SysDeptDao.class
io\renren\modules\security\config\WebMvcConfig.class
io\renren\modules\sys\dao\SysRoleUserDao.class
io\renren\modules\sys\redis\SysParamsRedis.class
io\renren\modules\oss\dao\SysOssDao.class
io\renren\modules\oss\entity\SysOssEntity.class
io\renren\modules\sys\dao\SysRoleDao.class
io\renren\modules\sys\service\impl\SysUserServiceImpl.class
io\renren\modules\message\controller\SmsController.class
io\renren\modules\sys\service\impl\SysRoleDataScopeServiceImpl.class
io\renren\common\config\MybatisPlusConfig.class
io\renren\modules\security\password\PasswordEncoder.class
io\renren\common\exception\RenExceptionHandler.class
io\renren\modules\sys\service\impl\SysMenuServiceImpl.class
io\renren\modules\sys\entity\SysParamsEntity.class
io\renren\modules\log\entity\SysLogErrorEntity.class
io\renren\modules\activiti\org\activiti\rest\editor\model\ModelEditorJsonRestResource.class
io\renren\modules\log\enums\OperationStatusEnum.class
io\renren\modules\job\service\impl\ScheduleJobLogServiceImpl.class
io\renren\modules\message\sms\AbstractSmsService.class
io\renren\modules\job\entity\ScheduleJobEntity.class
io\renren\modules\activiti\config\ProcessEngineConfig.class
io\renren\modules\oss\cloud\FastDFSImport.class
io\renren\modules\security\dao\SysUserTokenDao.class
io\renren\modules\job\service\impl\ScheduleJobServiceImpl.class
io\renren\modules\log\service\impl\SysLogErrorServiceImpl.class
io\renren\modules\message\service\impl\SysMailLogServiceImpl.class
io\renren\modules\sys\dao\SysRoleDataScopeDao.class
io\renren\modules\message\controller\MailLogController.class
io\renren\modules\sys\entity\SysUserEntity.class
io\renren\modules\job\entity\ScheduleJobLogEntity.class
io\renren\modules\activiti\dto\ModelDTO.class
io\renren\modules\message\sms\AliyunSmsService.class
io\renren\modules\security\service\impl\CaptchaServiceImpl.class
io\renren\modules\security\password\BCrypt.class
io\renren\modules\security\password\PasswordUtils.class
io\renren\modules\sys\dao\SysUserDao.class
io\renren\modules\log\dto\SysLogLoginDTO.class
io\renren\modules\job\dto\ScheduleJobDTO.class
io\renren\common\annotation\LogOperation.class
io\renren\modules\log\service\SysLogLoginService.class
io\renren\modules\sys\excel\SysUserExcel.class
io\renren\modules\security\service\impl\SysUserTokenServiceImpl.class
io\renren\modules\sys\controller\SysMenuController.class
io\renren\modules\demo\dto\NewsDTO.class
io\renren\common\interceptor\DataScope.class
io\renren\modules\demo\service\impl\NewsServiceImpl.class
io\renren\modules\sys\controller\SysRoleController.class
io\renren\common\config\KaptchaConfig.class
io\renren\modules\log\service\impl\SysLogLoginServiceImpl.class
io\renren\modules\message\email\EmailConfig.class
io\renren\modules\sys\enums\MenuTypeEnum.class
io\renren\modules\security\user\SecurityUser.class
io\renren\modules\sys\entity\SysRoleUserEntity.class
io\renren\modules\log\dao\SysLogErrorDao.class
io\renren\modules\activiti\service\ActRunningService.class
io\renren\modules\oss\cloud\QiniuCloudStorageService.class
io\renren\modules\sys\service\SysRoleDataScopeService.class
io\renren\modules\sys\entity\SysDictEntity.class
io\renren\modules\sys\dto\SystemDTO.class
io\renren\modules\sys\entity\SysLanguageEntity.class
io\renren\modules\activiti\service\ActProcessService.class
io\renren\modules\sys\service\SysDeptService.class
io\renren\modules\job\service\ScheduleJobLogService.class
io\renren\modules\sys\service\impl\SysParamsServiceImpl.class
io\renren\modules\sys\service\SysDictService.class
io\renren\modules\security\user\UserDetail.class
io\renren\modules\message\service\impl\SysSmsServiceImpl.class
io\renren\modules\oss\cloud\FastDFSCloudStorageService.class
io\renren\modules\sys\service\impl\SysRoleMenuServiceImpl.class
io\renren\modules\security\service\impl\ShiroServiceImpl.class
io\renren\modules\log\service\SysLogOperationService.class
io\renren\modules\message\sms\QcloudSmsService.class
io\renren\modules\oss\service\SysOssService.class
io\renren\common\validator\group\AliyunGroup.class
io\renren\modules\message\dto\SysSmsDTO.class
io\renren\modules\job\dao\ScheduleJobLogDao.class
io\renren\modules\log\excel\SysLogErrorExcel.class
io\renren\modules\oss\cloud\OSSFactory.class
io\renren\modules\security\service\CaptchaService.class
io\renren\modules\message\email\EmailUtils.class
io\renren\modules\job\init\JobCommandLineRunner.class
io\renren\modules\demo\controller\NewsController.class
io\renren\modules\oss\controller\SysOssController.class
io\renren\modules\oss\service\impl\SysOssServiceImpl.class
io\renren\modules\sys\service\impl\SysLanguageServiceImpl.class
io\renren\modules\log\controller\SysLogOperationController.class
io\renren\modules\security\oauth2\Oauth2Filter.class
io\renren\modules\sys\dao\SysDictDao.class
io\renren\modules\activiti\controller\ActRunningController.class
io\renren\modules\demo\entity\NewsEntity.class
io\renren\modules\message\service\impl\SysMailTemplateServiceImpl.class
io\renren\modules\log\enums\LoginStatusEnum.class
io\renren\modules\job\utils\ScheduleUtils.class
io\renren\modules\log\excel\SysLogOperationExcel.class
io\renren\modules\job\task\TestTask.class
io\renren\modules\oss\cloud\CloudStorageConfig.class
io\renren\modules\message\controller\MailTemplateController.class
io\renren\modules\job\service\ScheduleJobService.class
io\renren\modules\message\sms\SmsFactory.class
io\renren\modules\sys\dao\SysParamsDao.class
io\renren\modules\job\dto\ScheduleJobLogDTO.class
io\renren\common\validator\group\QcloudGroup.class
io\renren\common\aspect\DataFilterAspect.class
io\renren\modules\oss\cloud\AliyunCloudStorageService.class
io\renren\modules\security\service\ShiroService.class
io\renren\modules\sys\service\impl\SysRoleServiceImpl.class
io\renren\common\config\SwaggerConfig.class
io\renren\modules\message\service\SysSmsService.class
io\renren\modules\sys\service\SysRoleService.class
io\renren\modules\sys\service\SysMenuService.class
io\renren\common\validator\group\FastDFSGroup.class
io\renren\modules\sys\dto\SysMenuDTO.class
io\renren\modules\security\controller\LoginController.class
io\renren\modules\job\task\ITask.class
io\renren\modules\sys\entity\SysRoleMenuEntity.class
io\renren\modules\sys\enums\SuperAdminEnum.class
io\renren\modules\security\config\FilterConfig.class
io\renren\modules\sys\service\SysUserService.class
io\renren\modules\sys\entity\SysDeptEntity.class
io\renren\modules\sys\dto\SysRoleDTO.class
io\renren\modules\sys\dto\SysUserDTO.class
io\renren\modules\activiti\controller\ActProcessController.class
io\renren\modules\security\oauth2\Oauth2Token.class
io\renren\modules\message\service\SysMailTemplateService.class
io\renren\modules\log\excel\SysLogLoginExcel.class
io\renren\modules\sys\dao\SysLanguageDao.class
io\renren\modules\sys\entity\SysRoleEntity.class
io\renren\modules\log\dao\SysLogLoginDao.class
io\renren\modules\sys\dto\SysParamsDTO.class
io\renren\modules\sys\service\SysLanguageService.class
io\renren\modules\sys\dto\SysDeptDTO.class
io\renren\modules\log\controller\SysLogLoginController.class
io\renren\modules\sys\dao\SysMenuDao.class
io\renren\modules\log\service\SysLogErrorService.class
io\renren\common\aspect\LogOperationAspect.class
io\renren\common\utils\ExcelUtils.class
io\renren\common\handler\FieldMetaObjectHandler.class
io\renren\modules\message\dto\SysMailLogDTO.class
io\renren\modules\job\dao\ScheduleJobDao.class
io\renren\modules\activiti\controller\ActModelController.class
io\renren\modules\log\dto\SysLogErrorDTO.class
io\renren\common\validator\group\LocalGroup.class
io\renren\modules\security\oauth2\TokenGenerator.class
io\renren\modules\log\entity\SysLogLoginEntity.class
io\renren\modules\log\controller\SysLogErrorController.class
io\renren\modules\log\dto\SysLogOperationDTO.class
io\renren\modules\sys\controller\SystemController.class
io\renren\modules\job\controller\ScheduleJobController.class
io\renren\modules\security\password\BCryptPasswordEncoder.class
io\renren\modules\job\config\ScheduleConfig.class
io\renren\modules\log\dao\SysLogOperationDao.class
io\renren\modules\oss\cloud\QcloudCloudStorageService.class
io\renren\modules\log\entity\SysLogOperationEntity.class
io\renren\modules\log\enums\LoginOperationEnum.class
io\renren\modules\sys\service\SysParamsService.class
io\renren\modules\sys\dto\PasswordDTO.class
io\renren\modules\message\dao\SysSmsDao.class
io\renren\modules\message\entity\SysSmsEntity.class
io\renren\modules\sys\enums\UserStatusEnum.class
io\renren\modules\oss\cloud\AbstractCloudStorageService.class
io\renren\modules\oss\cloud\LocalCloudStorageService.class
io\renren\common\interceptor\DataFilterInterceptor.class
io\renren\modules\message\dto\SysMailTemplateDTO.class
io\renren\modules\sys\service\impl\SysRoleUserServiceImpl.class
io\renren\common\validator\group\QiniuGroup.class
io\renren\modules\job\controller\ScheduleJobLogController.class
io\renren\modules\demo\dao\NewsDao.class
io\renren\modules\message\service\SysMailLogService.class
io\renren\modules\sys\service\impl\SysDeptServiceImpl.class
io\renren\modules\activiti\org\activiti\rest\editor\model\ModelSaveRestResource.class
io\renren\common\annotation\DataFilter.class
io\renren\modules\sys\entity\SysMenuEntity.class
io\renren\modules\security\oauth2\Oauth2Realm.class
