F:\私单\spring-mybtis-plus\security-enterprise-2.3\security-enterprise\renren-api\src\main\java\io\renren\config\WebMvcConfig.java
F:\私单\spring-mybtis-plus\security-enterprise-2.3\security-enterprise\renren-api\src\main\java\io\renren\resolver\LoginUserHandlerMethodArgumentResolver.java
F:\私单\spring-mybtis-plus\security-enterprise-2.3\security-enterprise\renren-api\src\main\java\io\renren\service\impl\UserServiceImpl.java
F:\私单\spring-mybtis-plus\security-enterprise-2.3\security-enterprise\renren-api\src\main\java\io\renren\service\TokenService.java
F:\私单\spring-mybtis-plus\security-enterprise-2.3\security-enterprise\renren-api\src\main\java\io\renren\config\MybatisPlusConfig.java
F:\私单\spring-mybtis-plus\security-enterprise-2.3\security-enterprise\renren-api\src\main\java\io\renren\entity\UserEntity.java
F:\私单\spring-mybtis-plus\security-enterprise-2.3\security-enterprise\renren-api\src\main\java\io\renren\ApiApplication.java
F:\私单\spring-mybtis-plus\security-enterprise-2.3\security-enterprise\renren-api\src\main\java\io\renren\dao\UserDao.java
F:\私单\spring-mybtis-plus\security-enterprise-2.3\security-enterprise\renren-api\src\main\java\io\renren\config\FilterConfig.java
F:\私单\spring-mybtis-plus\security-enterprise-2.3\security-enterprise\renren-api\src\main\java\io\renren\entity\TokenEntity.java
F:\私单\spring-mybtis-plus\security-enterprise-2.3\security-enterprise\renren-api\src\main\java\io\renren\annotation\LoginUser.java
F:\私单\spring-mybtis-plus\security-enterprise-2.3\security-enterprise\renren-api\src\main\java\io\renren\service\UserService.java
F:\私单\spring-mybtis-plus\security-enterprise-2.3\security-enterprise\renren-api\src\main\java\io\renren\dao\TokenDao.java
F:\私单\spring-mybtis-plus\security-enterprise-2.3\security-enterprise\renren-api\src\main\java\io\renren\interceptor\AuthorizationInterceptor.java
F:\私单\spring-mybtis-plus\security-enterprise-2.3\security-enterprise\renren-api\src\main\java\io\renren\annotation\Login.java
F:\私单\spring-mybtis-plus\security-enterprise-2.3\security-enterprise\renren-api\src\main\java\io\renren\dto\LoginDTO.java
F:\私单\spring-mybtis-plus\security-enterprise-2.3\security-enterprise\renren-api\src\main\java\io\renren\controller\ApiTestController.java
F:\私单\spring-mybtis-plus\security-enterprise-2.3\security-enterprise\renren-api\src\main\java\io\renren\controller\ApiRegisterController.java
F:\私单\spring-mybtis-plus\security-enterprise-2.3\security-enterprise\renren-api\src\main\java\io\renren\dto\RegisterDTO.java
F:\私单\spring-mybtis-plus\security-enterprise-2.3\security-enterprise\renren-api\src\main\java\io\renren\exception\RenExceptionHandler.java
F:\私单\spring-mybtis-plus\security-enterprise-2.3\security-enterprise\renren-api\src\main\java\io\renren\service\impl\TokenServiceImpl.java
F:\私单\spring-mybtis-plus\security-enterprise-2.3\security-enterprise\renren-api\src\main\java\io\renren\config\SwaggerConfig.java
F:\私单\spring-mybtis-plus\security-enterprise-2.3\security-enterprise\renren-api\src\main\java\io\renren\controller\ApiLoginController.java
